**** BEGIN LOGGING AT Mon Aug 22 01:49:46 2022

Aug 22 01:49:45 *	Now talking on #manjaro-talk
**** ENDING LOGGING AT Mon Aug 22 01:50:33 2022

**** BEGIN LOGGING AT Sat Aug 27 22:29:31 2022

Aug 27 22:29:30 *	Now talking on #manjaro-talk
**** ENDING LOGGING AT Sat Aug 27 22:41:43 2022

**** BEGIN LOGGING AT Fri Sep 16 15:26:22 2022

Sep 16 15:26:24 *	Now talking on #manjaro-talk
**** ENDING LOGGING AT Fri Sep 16 15:26:46 2022

**** BEGIN LOGGING AT Sat Sep 17 00:49:40 2022

Sep 17 00:49:40 *	Now talking on #manjaro-talk
Sep 17 01:07:33 *	ClaymorePT (~Claymore@freenode-4ih.9d9.p8mvet.IP) has joined
Sep 17 01:07:40 *	ClaymorePT has quit (Quit: Mom decided I had to go to bed.)
**** ENDING LOGGING AT Sat Sep 17 01:31:48 2022

**** BEGIN LOGGING AT Sun Sep 18 00:06:10 2022

Sep 18 00:06:12 *	Now talking on #manjaro-talk
**** ENDING LOGGING AT Sun Sep 18 00:07:03 2022

